The KC Chiefs offense and defense has drastically improved in the last five weeks - Caroline Franke's Blog
…
Let’s just say, the first 8 weeks of the season for Patrick Mahomes wasn’t great. He wasn’t completing passes he would normally complete, making his completion percentage over expected (CPOE) decrease as each week went on. But, week 9 against the Green Bay Packers was the turnaround for Mahomes.

The red line indicates Mahomes CPOE throughout the season. There has been a steady decrease in his completions up until the blue line, which is when he started playing like THE Patrick Mahomes normally does. The more passes Mahomes completes, the more likely the Chiefs win games.

defense <- games_2021 %>%
  group_by(week, defteam) %>%
  summarize(def_epa = mean(epa, na.rm = TRUE))

Here, the defense was grouped by week and team to find the defensive EPA average.

games_2021 %>%
  group_by(week, defteam) %>%
  summarise(def_epa = sum(epa, na.rm = TRUE)) 

## # A tibble: 375 × 3
## # Groups:   week [13]
##     week defteam def_epa
##    <int> <chr>     <dbl>
##  1     1 ARI     -25.4  
##  2     1 ATL       8.28 
##  3     1 BAL      -0.106
##  4     1 BUF      -0.470
##  5     1 CAR     -11.3  
##  6     1 CHI      14.2  
##  7     1 CIN       1.84 
##  8     1 CLE      19.0  
##  9     1 DAL       5.24 
## 10     1 DEN       1.56 
## # … with 365 more rows
…
